programing-import
…
data_tbl %>% 
  gather(rep, value, rep_1:rep_9) %>% 
  arrange(treatment, block)

# A tibble: 144 × 4
   treatment block rep   value
   <fct>     <int> <chr> <dbl>
 1 A             1 rep_1 17.1 
 2 A             1 rep_2  8.5 
 3 A             1 rep_3  7.91
 4 A             1 rep_4 12.7 
 5 A             1 rep_5 16.3 
 6 A             1 rep_6 12.5 
 7 A             1 rep_7 16.3 
 8 A             1 rep_8 10.2 
 9 A             1 rep_9  5.59
10 A             2 rep_1 10.4 
# … with 134 more rows
