Skript Bio Data Science - Appendix A — Beispielhafte Auswertungen
…
spinach_emm_tbl <- spinach_model_tbl %>%  
  mutate(emm = map(model, emmeans, ~trt)) %>% 
  mutate(contrast = map(emm, contrast, method = "pairwise", 
                        adjust = "none")) %>% 
  mutate(cld = map(emm, cld, Letters = letters, adjust = "none"))

Jetzt lassen wir uns die Spalte contrast wiedergeben. Wir müssen aber vorher die Spalte noch in ein Tibble umwandeln. Dann wollen wir noch die p-Werte schöner haben. Wichtig ist auch immer, dass wir über die Funktion select() die für uns wichtigen Spalten auswählen.

spinach_emm_tbl %>% 
  mutate(contrast = map(contrast, as_tibble)) %>% 
  unnest(contrast) %>% 
  select(sample, outcome, contrast, p.value) %>% 
  mutate(p.value = pvalue(p.value))

# A tibble: 126 × 4
# Groups:   sample, outcome [6]
   sample outcome contrast    p.value
   <fct>  <fct>   <chr>       <chr>  
 1 leaf   fe      trt1 - trt2 0.002  
 2 leaf   fe      trt1 - trt3 <0.001 
 3 leaf   fe      trt1 - trt4 <0.001 
 4 leaf   fe      trt1 - trt5 <0.001 
 5 leaf   fe      trt1 - trt6 <0.001 
 6 leaf   fe      trt1 - trt7 <0.001 
 7 leaf   fe      trt2 - trt3 0.056  
 8 leaf   fe      trt2 - trt4 <0.001 
 9 leaf   fe      trt2 - trt5 0.127  
10 leaf   fe      trt2 - trt6 <0.001 
# … with 116 more rows

Nachdem wir uns die Kontraste für die paarweisen Vergleiche wiedergeben haben lassen, wollen wir jetzt noch die ganzen Compact letter displays haben. Auch hier nutzen wir dann die Funktion unnest() und wolle dann nicht alle Spalten haben.

spinach_emm_tbl %>% 
  mutate(cld = map(cld, arrange, trt)) %>% 
  unnest(cld) %>% 
  select(sample, outcome, trt, .group) %>% 
  print(n = 15)

# A tibble: 42 × 4
# Groups:   sample, outcome [6]
   sample outcome trt   .group
   <fct>  <fct>   <fct> <chr> 
 1 leaf   fe      1     " a  "
 2 leaf   fe      2     "  b "
 3 leaf   fe      3     "  b "
 4 leaf   fe      4     "   c"
 5 leaf   fe      5     "  b "
 6 leaf   fe      6     "   c"
 7 leaf   fe      7     "   c"
 8 leaf   cd      1     " a  "
 9 leaf   cd      2     "  bc"
10 leaf   cd      3     "  bc"
11 leaf   cd      4     " ab "
12 leaf   cd      5     "   c"
13 leaf   cd      6     " abc"
14 leaf   cd      7     "  bc"
15 leaf   zn      1     " a"  
# … with 27 more rows

Mit der Option print(n = 15) kannst du dir die ersten fünfzehn Zeilen ausgeben lassen. du musst also schauen, wie viele Zeilen dein Tibble hat und dann kannst du dir das ganze Tibble über die Funktion print() ausgeben lassen. Ich nutze immer diese Art der Ausgabe mit print() da es sicherer ist, als sich immer den ganzen Datensatz wiedergeben zu lassen. Mit sicherer meine ich, dass ich mir nicht die ganze R Console mit der Ausgabe zubaue.

A.12 Daten eines automatischen Loggers

log_tbl <- read_excel("data/log_data.xlsx") %>% 
  mutate(date = as_date(date, format = '%d.%m.%Y'),
         date_time = as_datetime(str_c(date, " ", time))) %>% 
  select(date_time, everything())

Insgesamt hat unsere Datei \(n = 35761\) Beobachtungen für die Zeit vom 21. November 2022 bis zum 16. Dezember 2022.

log_tbl

# A tibble: 35,761 × 6
   date_time           date       time       co2  temp  relh
   <dttm>              <date>     <chr>    <dbl> <dbl> <dbl>
 1 2022-11-21 12:30:00 2022-11-21 12:30:00   896  18.2  61.7
 2 2022-11-21 12:31:00 2022-11-21 12:31:00   893  18.2  66.3
 3 2022-11-21 12:32:00 2022-11-21 12:32:00   893  18.4  67.8
 4 2022-11-21 12:33:00 2022-11-21 12:33:00   939  18.6  70  
 5 2022-11-21 12:34:00 2022-11-21 12:34:00   939  18.8  70.6
 6 2022-11-21 12:35:00 2022-11-21 12:35:00   975  19    70.3
 7 2022-11-21 12:36:00 2022-11-21 12:36:00   980  19.2  71.6
 8 2022-11-21 12:37:00 2022-11-21 12:37:00   986  19.4  71.8
 9 2022-11-21 12:38:00 2022-11-21 12:38:00   994  19.5  71.9
10 2022-11-21 12:39:00 2022-11-21 12:39:00   986  19.7  72.2
# … with 35,751 more rows
…
