71 Grundlagen der Klassifikation – Bio Data Science
…
Und was ist jetzt mit der Prädiktion? Dafür können wir entweder die Funktion predict() nutzen oder aber die Funktion augment(). Mir persönlich gefällt die Funktion augment() besser, da ich hier mehr Informationen zu den vorhergesagten Werten erhalte. Ich wähle mir dann die Spalte infected aus und alle Spalten, die ein .pred beinhalten. Dann runde ich noch auf die zweite Kommastelle.

R Code [zeigen / verbergen]

augment(pig_fit, new_data = pig_tbl) |> 
  select(infected, matches(".pred")) |> 
  mutate(across(where(is.numeric), round, 2))

# A tibble: 412 × 4
   infected .pred_class .pred_0 .pred_1
   <fct>    <fct>         <dbl>   <dbl>
 1 1        1              0.03    0.97
 2 1        0              0.73    0.27
 3 0        1              0.45    0.55
 4 1        1              0.31    0.69
 5 1        1              0.11    0.89
 6 1        1              0.13    0.87
 7 1        0              0.6     0.4 
 8 0        0              0.66    0.34
 9 1        1              0.05    0.95
10 1        1              0.21    0.79
# ℹ 402 more rows
…
