Skript Bio Data Science - 52 \(k\) nearest neighbor
…
pig_dummy_tbl <- pig_kmeans_rec %>% 
  prep %>% 
  juice()

kmeans_obj <- kmeans(pig_dummy_tbl, centers = 3)

pig_dummy_tbl %>% 
  bind_cols(cluster = pluck(kmeans_obj, "cluster")) %>% 
  select(cluster, everything())

# A tibble: 309 × 14
   cluster   age activity   crp bloodpr…¹ weight creat…² infec…³ sex_m…⁴ locat…⁵
     <int> <dbl>    <dbl> <dbl>     <dbl>  <dbl>   <dbl> <fct>     <dbl>   <dbl>
 1       3    57     15.3  23.0      57.5   17.9    7.41 1             1       0
 2       3    61     10.6  22.1      52.0   20.1    4.35 1             0       1
 3       3    57     14.1  21.6      57.0   18.3    3.86 1             1       1
 4       2    59     11.8  19.8      60.0   18.4    5.55 1             0       0
 5       3    58     13.9  22.6      56.2   15.4    6.89 1             1       0
 6       2    60     13.0  20.4      64.1   20      6.12 1             0       0
 7       2    59     12.7  21.7      59.6   18.7    4.46 1             1       1
 8       1    65     14    17.4      50.7   19.0    3.48 0             1       1
 9       1    63     14.7  21.6      55.4   18.4    5.27 1             1       0
10       3    56     13.1  23.3      51.9   19.8    7.4  1             0       0
# … with 299 more rows, 4 more variables: location_northwest <dbl>,
#   location_west <dbl>, frailty_pre.frail <dbl>, frailty_robust <dbl>, and
#   abbreviated variable names ¹​bloodpressure, ²​creatinin, ³​infected,
#   ⁴​sex_male, ⁵​location_northeast
…
