Skript Bio Data Science - 51 Data preprocessing
…
      role #variables
        ID          1
   outcome          1
 predictor          4

Training data contained 412 data points and no missing data.

Operations:

Dummy variables from sex, frailty [trained]

pig_dummy_rec %>% 
  bake(new_data = NULL)

# A tibble: 412 × 7
   pig_id   age   crp infected sex_male frailty_pre.frail frailty_robust
    <int> <dbl> <dbl>    <dbl>    <dbl>             <dbl>          <dbl>
 1      1    61  22.4        1        1                 0              1
 2      2    53  18.6        0        1                 0              1
 3      3    66  18.8        0        0                 0              1
 4      4    59  19.4        0        0                 0              1
 5      5    63  21.6        1        1                 0              1
 6      6    55  21.4        1        1                 0              1
 7      7    49  19.0        0        1                 1              0
 8      8    53  19.0        0        1                 0              1
 9      9    58  21.9        1        0                 0              1
10     10    57  21.0        1        1                 0              1
# … with 402 more rows
