Skript Bio Data Science - 58 Data preprocessing
…
outcome:   1
predictor: 4
ID:        1

── Operations 

• Dummy variables from: all_nominal_predictors()

Wenn wir das Rezept fertig haben, dann können wir uns die Daten einmal anschauen. Durch die Funktion prep() initialisieren wir das Rezept und mit der Funktion juice() teilen wir mit, dass wir das Rezept gleich auf die Trainingsdaten mit denen wir das Rezept gebaut haben, anweden wollen.

pig_dummy_rec %>%
  prep() %>%
  juice() 

# A tibble: 412 × 7
   pig_id   age   crp infected sex_male frailty_pre.frail frailty_robust
    <int> <dbl> <dbl>    <dbl>    <dbl>             <dbl>          <dbl>
 1      1    61  22.4        1        1                 0              1
 2      2    53  18.6        1        1                 0              1
 3      3    66  18.8        0        0                 0              1
 4      4    59  19.4        1        0                 0              1
 5      5    63  21.6        1        1                 0              1
 6      6    55  21.4        1        1                 0              1
 7      7    49  19.0        1        1                 1              0
 8      8    53  19.0        0        1                 0              1
 9      9    58  21.9        1        0                 0              1
10     10    57  21.0        1        1                 0              1
# ℹ 402 more rows
…
Warning: There was 1 warning in `mutate()`.
ℹ In argument: `across(where(is.numeric), round, 2)`.
Caused by warning:
! The `...` argument of `across()` is deprecated as of dplyr 1.1.0.
Supply arguments directly to `.fns` through an anonymous function instead.

  # Previously
  across(a:b, mean, na.rm = TRUE)

  # Now
  across(a:b, \(x) mean(x, na.rm = TRUE))

# A tibble: 412 × 6
   pig_id   age   crp sex    frailty   infected
    <dbl> <dbl> <dbl> <fct>  <fct>        <dbl>
 1      1  0.22  1.62 male   robust           1
 2      2 -1.55 -0.99 male   robust           1
 3      3  1.32 -0.91 female robust           0
 4      4 -0.23 -0.48 female robust           1
 5      5  0.66  1.05 male   robust           1
 6      6 -1.11  0.97 male   robust           1
 7      7 -2.44 -0.76 male   pre-frail        1
 8      8 -1.55 -0.76 male   robust           0
 9      9 -0.45  1.27 female robust           1
10     10 -0.67  0.62 male   robust           1
# ℹ 402 more rows
…
── Operations 

• Range scaling to [0,1] for: all_numeric_predictors()

Auch hier können wir dann die Daten generieren und uns einmal anschauen. Im Gegensatz zu der Standardisierung treten jetzt in unseren Spalten keine negativen Werte mehr auf. Wir runden hier ebenfalls nochmal alle numerischen Variablen, damit wir nicht so einen breiten Datensatz erhalten. Das hat jetzt aber eher was mit der Ausgabe hier auf der Webseite zu tun. Wir müssen nicht runden um die Daten dann zu verwenden.

pig_range_rec %>%
  prep() %>%
  juice() %>% 
  mutate(across(where(is.numeric), round, 2))

# A tibble: 412 × 6
   pig_id   age   crp sex    frailty   infected
    <dbl> <dbl> <dbl> <fct>  <fct>        <dbl>
 1      1  0.52  0.82 male   robust           1
 2      2  0.17  0.34 male   robust           1
 3      3  0.74  0.36 female robust           0
 4      4  0.43  0.44 female robust           1
 5      5  0.61  0.72 male   robust           1
 6      6  0.26  0.7  male   robust           1
 7      7  0     0.39 male   pre-frail        1
 8      8  0.17  0.39 male   robust           0
 9      9  0.39  0.76 female robust           1
10     10  0.35  0.64 male   robust           1
# ℹ 402 more rows
…
── Operations 

• Mean imputation for: all_numeric_predictors()

• Mode imputation for: all_nominal_predictors()

Dann können wir uns auch schon die Daten generieren. Wir sehen, dass wir keine fehlenden Werte mehr in unseren Daten vorliegen haben. Wie immer können wir uns die gerundeten Daten dann einmal anschauen.

pig_imp_rec  %>%
  prep() %>%
  juice() %>% 
  mutate(across(where(is.numeric), round, 2))

# A tibble: 412 × 6
   pig_id   age   crp sex    frailty   infected
    <dbl> <dbl> <dbl> <fct>  <fct>        <dbl>
 1      1    61  22.4 male   robust           1
 2      2    53  18.6 male   robust           1
 3      3    66  18.8 female robust           0
 4      4    59  19.4 female robust           1
 5      5    63  21.6 male   robust           1
 6      6    55  21.4 male   robust           1
 7      7    49  19.0 male   pre-frail        1
 8      8    53  19.0 male   robust           0
 9      9    58  21.9 female robust           1
10     10    57  21.0 male   robust           1
# ℹ 402 more rows
…
