Skript Bio Data Science - 65 Support vector machines
…
svm_aug_lst <- lst(svm_lin_mod,
                   svm_poly_mod,
                   svm_rbf_mod) %>% 
  map(~workflow(gummi_rec, .x)) %>% 
  map(~fit(.x, gummi_train_data)) %>% 
  map(~augment(.x, gummi_test_data)) %>% 
  map(~select(.x, gender, matches("pred")))

 Setting default kernel parameters  

svm_aug_lst

$svm_lin_mod
# A tibble: 137 × 4
   gender .pred_class .pred_m .pred_w
   <fct>  <fct>         <dbl>   <dbl>
 1 w      w            0.0257  0.974 
 2 w      w            0.0430  0.957 
 3 m      m            0.820   0.180 
 4 w      w            0.245   0.755 
 5 m      m            0.808   0.192 
 6 m      m            0.981   0.0187
 7 m      m            0.936   0.0641
 8 m      m            0.947   0.0532
 9 m      m            0.973   0.0265
10 m      w            0.501   0.499 
# ℹ 127 more rows

$svm_poly_mod
# A tibble: 137 × 4
   gender .pred_class .pred_m .pred_w
   <fct>  <fct>         <dbl>   <dbl>
 1 w      w             0.483   0.517
 2 w      w             0.493   0.507
 3 m      m             0.509   0.491
 4 w      m             0.510   0.490
 5 m      m             0.511   0.489
 6 m      m             0.525   0.475
 7 m      m             0.516   0.484
 8 m      m             0.514   0.486
 9 m      m             0.511   0.489
10 m      w             0.502   0.498
# ℹ 127 more rows

$svm_rbf_mod
# A tibble: 137 × 4
   gender .pred_class .pred_m .pred_w
   <fct>  <fct>         <dbl>   <dbl>
 1 w      w            0.332   0.668 
 2 w      w            0.0423  0.958 
 3 m      m            0.882   0.118 
 4 w      w            0.310   0.690 
 5 m      m            0.881   0.119 
 6 m      m            0.964   0.0356
 7 m      m            0.958   0.0421
 8 m      m            0.956   0.0441
 9 m      m            0.978   0.0224
10 m      w            0.457   0.543 
# ℹ 127 more rows
…
