84 Baustelle – Bio Data Science
…
simple_2_tbl <- flea_model_tbl |> 
  filter(stage == "adult")
simple_2_fit <- lm(jump_length ~ weight*feeding, simple_2_tbl)
coef(simple_2_fit)

          (Intercept)                weight          feedingblood 
          43.21968178            2.11178610           29.67377681 
       feedingketchup   weight:feedingblood weight:feedingketchup 
          43.24721935           -0.03097599           -1.65129790 

R Code [zeigen / verbergen]

simple_2_fit |> broom::augment()

# A tibble: 24 × 9
   jump_length weight feeding    .fitted  .resid  .hat .sigma .cooksd .std.resid
         <dbl>  <dbl> <fct>        <dbl>   <dbl> <dbl>  <dbl>   <dbl>      <dbl>
 1        77.2  16.4  sugar_wat…    77.9  -0.695 0.128   25.0 2.30e-5    -0.0306
 2        56.2  12.6  sugar_wat…    69.9 -13.6   0.350   24.7 4.34e-2    -0.695 
 3        73.4  15.6  sugar_wat…    76.1  -2.68  0.147   25.0 4.11e-4    -0.119 
 4        85.2  24.4  sugar_wat…    94.7  -9.56  0.797   24.5 5.01e-1    -0.874 
 5        79.3  16.4  sugar_wat…    78.0   1.32  0.128   25.0 8.28e-5     0.0582
 6        77.3  14.8  sugar_wat…    74.5   2.87  0.180   25.0 6.21e-4     0.130 
 7        90.2  17.0  sugar_wat…    79.2  11.0   0.125   24.8 5.57e-3     0.484 
 8        93.0  18.2  sugar_wat…    81.6  11.4   0.144   24.8 7.19e-3     0.506 
 9       150.   11.1  blood         96.1  54.3   0.139   20.6 1.56e-1     2.41  
10        94.4   9.77 blood         93.2   1.15  0.169   25.0 9.08e-5     0.0518
# ℹ 14 more rows
…
