Skript Bio Data Science - 16 Visualisierung von Daten
…
Abbildung 16.25— Ursprüngliche Abbildung, die nachgebaut werden soll. Zwei nicht-lineare .

regression_tbl <- read_excel("data/zerforschen_regression_linear.xlsx") %>% 
  mutate(type = factor(type, labels = c("Basil", "Oregano")))
regression_tbl 

# A tibble: 40 × 3
   type  washed unwashed
   <fct>  <dbl>    <dbl>
 1 Basil      0        0
 2 Basil     10       15
 3 Basil     20       18
 4 Basil     30       32
 5 Basil     40       36
 6 Basil     50       52
 7 Basil     60       59
 8 Basil     70       72
 9 Basil     80       85
10 Basil    100      105
# ℹ 30 more rows
…
Ich habe mir dann die Mittelwerte genommen und für jede iodine/ki-Kombination noch zwei Werte ergänzt um dann noch etwas Streuung zu bekommen. So habe ich dann nur drei Beobachtungen pro Kombination, aber die Anzahl soll hier erstmal reichen. Du findest die Werte in der Datei zerforschen_regression.xlsx. Hier ist die Datei in einem Auszug dann einmal geladen und dargestellt.

regression_tbl <- read_excel("data/zerforschen_regression.xlsx") %>% 
  mutate(type = as_factor(type))
regression_tbl 

# A tibble: 36 × 3
   type  iodine content
   <fct>  <dbl>   <dbl>
 1 KI      0       0.1 
 2 KI      0       0.05
 3 KI      0       0.15
 4 KI      0.25  100   
 5 KI      0.25  105   
 6 KI      0.25  110   
 7 KI      0.5   180   
 8 KI      0.5   190   
 9 KI      0.5   200   
10 KI      0.75  275   
# ℹ 26 more rows
…
Abbildung 16.33— Ursprüngliche Abbildung, die nachgebaut werden soll. Zwei nicht-lineare Regession

barplot_tbl <- read_excel("data/zerforschen_barplot_2fac.xlsx") %>% 
  mutate(frucht = factor(frucht, 
                         levels = c("klein", "mittel", "groß"),
                         labels = c("Klein", "Mittel", "Groß")),
         nmin = as_factor(nmin))
barplot_tbl 

# A tibble: 36 × 3
   frucht nmin  yield
   <fct>  <fct> <dbl>
 1 Klein  150     1.5
 2 Klein  150     2.2
 3 Klein  150     2.8
 4 Klein  200     2.4
 5 Klein  200     1.9
 6 Klein  200     2.9
 7 Klein  250     3.7
 8 Klein  250     3.9
 9 Klein  250     3.5
10 Klein  300     2.5
# ℹ 26 more rows
…
