21 Generierung von Daten – Bio Data Science
…
Testing multiple interventions in a single experiment

Eine Frage des Nestings oder der Schachtelung.

R Code [zeigen / verbergen]

fac2_dt <- genMultiFac(each = 5, nFactors = 2, levels = c(3, 2), 
                       colNames = c("f_a", "f_b"))

R Code [zeigen / verbergen]

fac2_dt |> as_tibble()

# A tibble: 30 × 3
      id   f_a   f_b
   <int> <int> <int>
 1     1     1     1
 2     2     1     1
 3     3     1     1
 4     4     1     1
 5     5     1     1
 6     6     2     1
 7     7     2     1
 8     8     2     1
 9     9     2     1
10    10     2     1
# ℹ 20 more rows

R Code [zeigen / verbergen]

y_pois_def <- defDataAdd(varname = "y", formula = "-2 + 2*f_a + 6*f_b",
                         dist = "poisson")

R Code [zeigen / verbergen]

addColumns(y_pois_def, fac2_dt) |> as_tibble()

# A tibble: 30 × 4
      id   f_a   f_b     y
   <int> <int> <int> <int>
 1     1     1     1     9
 2     2     1     1     8
 3     3     1     1     3
 4     4     1     1    10
 5     5     1     1     7
 6     6     2     1     6
 7     7     2     1     6
 8     8     2     1     5
 9     9     2     1     5
10    10     2     1     5
# ℹ 20 more rows
…
