5 Von Flöhen auf Tieren – Bio Data Science
…
rbind(rmvnorm(n = 8, mean = c(1,2,3,4,5), sigma = sigma),
      rmvnorm(n = 8, mean = c(1,2,3,4,5), sigma = sigma),
      rmvnorm(n = 8, mean = c(1,2,3,4,5), sigma = sigma),
      rmvnorm(n = 8, mean = c(1,2,3,4,5), sigma = sigma),
      rmvnorm(n = 8, mean = c(1,2,3,4,5), sigma = sigma),
      rmvnorm(n = 8, mean = c(1,2,3,4,5), sigma = sigma)) |> 
  as_tibble() |> 
  set_names(c("K", "Mg", "CRP", "Hb", "BSG"))

# A tibble: 48 × 5
         K        Mg     CRP    Hb   BSG
     <dbl>     <dbl>   <dbl> <dbl> <dbl>
 1  0.310  -0.0725   -0.0973  4.56 0.592
 2  1.48    3.04      6.39    5.13 8.58 
 3 -1.68   -0.515     2.18    2.77 4.55 
 4 -0.647   0.550     0.811   2.02 3.43 
 5  2.05    3.36      3.81    4.10 6.07 
 6  0.667   1.92      5.46    5.01 7.40 
 7  2.99    4.50      2.90    3.30 5.57 
 8 -2.12   -0.724     1.82    2.05 4.55 
 9 -1.32    0.000996  1.00    1.80 3.76 
10  0.0236  0.936     1.45    3.05 3.59 
# ℹ 38 more rows
…
