Skript Bio Data Science - 57 Fortgeschrittene Designs
…
\[
y \sim \overbrace{trt}^{f_1} + \underbrace{block}_{f_2} + \overbrace{location}^{f_3}
\]

57.2.1 … mit expand_grid()

three_fct_long_tbl <- expand_grid(location = 1:2, trt = 1:4, block = 1:4) %>% 
  mutate(location = factor(location, labels = c("north", "south")),
         trt = factor(trt, labels = c("ctrl", "A", "B", "C")),
         block = factor(block, labels = as.roman(1:4)),
         id = sample(1:n()))

three_fct_long_tbl

# A tibble: 32 × 4
   location trt   block    id
   <fct>    <fct> <fct> <int>
 1 north    ctrl  I        17
 2 north    ctrl  II        9
 3 north    ctrl  III      11
 4 north    ctrl  IV       32
 5 north    A     I        21
 6 north    A     II       23
 7 north    A     III       1
 8 north    A     IV        8
 9 north    B     I        24
10 north    B     II       29
# ℹ 22 more rows
…
