Skript Bio Data Science - 57 Fortgeschrittene Designs
…
57.2.1 … mit expand_grid()

Bei dem randomized complete block design haben wir ja Glück, wir müssen nur darauf achten, das die einzelnen Beobachtungen innerhalb der Blöcke vollständig randomisiert sind. Daher Randomisieren wir ganz am Ende einmal die Saplte fert und die Spalte soil durch. Wir hätten uns das mutate() auch sparen können und stattdessen einfach die Funktion slice_sample(prop = 1) nutzen. Die Funktion permutiert dann alles innerhalb der gruppierten Blöcke durch. Mach wie es dir besser gefällt und du es besser nachvollziehen kannst.

three_fct_long_tbl <- expand_grid(block = 1:2, soil = 1:4, fert = 1:6) %>% 
  mutate(block = factor(block, labels = str_c("Block ", 1:2)),
         soil = factor(soil, labels = str_c("soil_", 1:4)),
         fert = factor(fert, label = str_c("fe_", 1:6))) %>% 
  group_by(block) %>% 
  mutate(fert = sample(fert), # Randomisierung fert
         soil = sample(soil)) # Randomisierung soil
three_fct_long_tbl

# A tibble: 48 × 3
# Groups:   block [2]
   block   soil   fert 
   <fct>   <fct>  <fct>
 1 Block 1 soil_1 fe_6 
 2 Block 1 soil_2 fe_3 
 3 Block 1 soil_3 fe_1 
 4 Block 1 soil_2 fe_3 
 5 Block 1 soil_2 fe_6 
 6 Block 1 soil_1 fe_2 
 7 Block 1 soil_3 fe_6 
 8 Block 1 soil_3 fe_4 
 9 Block 1 soil_3 fe_5 
10 Block 1 soil_4 fe_5 
# ℹ 38 more rows
…
splitplot_long_tbl <- expand_grid(block = 1:2, 
                                  soil = 1:4) %>% 
  group_by(block) %>%             # Gruppieren nach block
  mutate(soil = sample(soil)) %>% # Randomisieren von soil in block
  expand_grid(fert = 1:6) %>%   
  group_by(block, soil) %>%       # Gruppieren nach block und soil
  mutate(fert = sample(fert)) %>% # Randomisieren von fert in block und soil
  ungroup() %>% 
  mutate(fert = factor(fert, label = str_c("fe_", 1:6)),
         block = factor(block, labels = str_c("Block ", 1:2)),
         soil = factor(soil, labels = str_c("soil_", 1:4))) 
splitplot_long_tbl

# A tibble: 48 × 3
   block   soil   fert 
   <fct>   <fct>  <fct>
 1 Block 1 soil_4 fe_1 
 2 Block 1 soil_4 fe_3 
 3 Block 1 soil_4 fe_4 
 4 Block 1 soil_4 fe_6 
 5 Block 1 soil_4 fe_2 
 6 Block 1 soil_4 fe_5 
 7 Block 1 soil_2 fe_4 
 8 Block 1 soil_2 fe_5 
 9 Block 1 soil_2 fe_2 
10 Block 1 soil_2 fe_6 
# ℹ 38 more rows
…
Abbildung 57.7— Split plot design (3-faktoriell) für die Faktoren Dünger fert sowie soil randomisiert in den vier Blöcken. Der Faktor fert ist in dem Faktor soil genestet und randomisiert.

57.3.3 … mit dae

Auch das R Paket dae liefert die Möglichkeit ein split plot design zu erstellen. Die Idee von dae ist ja ein mehr generalisiertes Framework für die Erstellung von Versuchsplänen anzubieten. Deshalb gibt es ja nur die Funktion designRandomize(), die ein gegebenes Design nach feststehenden Regeln randomisiert. Die IDee ist gut, aber dafür musst du dich realtiv tief in das Paket dae einarbeiten. Für mich war dieser kurze Code für das split plot design schon recht langwierig aus den Beispielen aus den Notes on the use of dae for design herzuleiten. Prinzipiell ist es ja nicht schwer, aber es ist schon etwas mehr Auswand.

Wie funktioniert nun die Erstellung eines split plot design? Wir bauen uns erstmal unser Design der Positionen mit den Blöcken, Mainplots MPlots sowie den Subplot SubPlots. Dabei ist es wichtig zu wissen, dass die Subplots in den Mainplots genestet sind. Die Mainplots sind dann wiederum in den Blöcken genestet. Ja, hier hast du dann ein Paket spezifisches Naming der Optionen. Im zweiten Schritt packen wir dann den Faktor Boden soil und den Faktor fert zu den Positionen hinzu. Wichtig ist das times = 4 am Ende, was nochmal die Faktorkombinationen von soil und fert jeweils in der Anzahl der Blöcke wiederholt. Wir haben ja hier vier Blöcke vorliegen, dass vergisst man ja mal schnell.

split_sys <- cbind(fac.gen(list(Blocks = 4, MPlots = 4, SubPlots = 6)),
                   fac.gen(list(soil = str_c("soil_", 1:4),
                                fert = str_c("fe_", 1:6)), times = 4)) 
split_sys %>% 
  as_tibble()

# A tibble: 96 × 5
   Blocks MPlots SubPlots soil   fert 
   <fct>  <fct>  <fct>    <fct>  <fct>
 1 1      1      1        soil_1 fe_1 
 2 1      1      2        soil_1 fe_2 
 3 1      1      3        soil_1 fe_3 
 4 1      1      4        soil_1 fe_4 
 5 1      1      5        soil_1 fe_5 
 6 1      1      6        soil_1 fe_6 
 7 1      2      1        soil_2 fe_1 
 8 1      2      2        soil_2 fe_2 
 9 1      2      3        soil_2 fe_3 
10 1      2      4        soil_2 fe_4 
# ℹ 86 more rows

An der Ausgabe siehst du ganz schön, wie die Spalte Mainplots zu dem Faktor soil passt sowie die Spalte Subplots zu dem Faktor fert. Die Herausforderung ist nun, dass das R Paket dae davon ausgeht, dass du weißt, was ein split plot design ist und wie es aufgebaut ist. Es gibt also wenig Hilfestellung innerhalb der Funktionen. Dafür sind die Funktionen super flexibel und du kannst dir deine eigenen kreativen Designs bauen - wovon ich abrate.

Im nächsten Schritt nutzen wir die Funktion designRandomize() um die Faktoren soil und fert den Positionen in der Spalte Block, MPlots und SubPlots randomisiert zuzuweisen. Deshalb sind ja auch die Faktoren soil und fert der Option allocated (deu. zugeteilt) zugewiesen, da die beiden Faktoren ja den Spalten Block, MPlots und SubPlots als Empfänger (eng. recipient) zugeteilt werden. Soweit so gut, dass sagt aber noch nichts über das Wie der Zuteilung aus. Das machen wir dann mit der Option nestet.recipients. Der Option sagen wir jetzt wer in was genestet ist. Und durch diese Zuordnung erschaffen wir ein split plot design. Die Mainplots sind in den Blöcken genestet und dann die Subplots in den Mainplots und den Blöcken. Ja, da muss man erstmal drauf kommen. Hat bei mir gedauert, bis ich das hingekriegt habe.

split_lay <- designRandomize(allocated = split_sys[c("soil", "fert")],
                             recipient = split_sys[c("Blocks", "MPlots", "SubPlots")],
                             nestet.recipients = list(MPlots = "Blocks",
                                                      SubPlots = c("MPlots", "Blocks")),
                             seed = 235805)
split_lay %>% 
  as_tibble()

# A tibble: 96 × 5
   Blocks MPlots SubPlots soil   fert 
   <fct>  <fct>  <fct>    <fct>  <fct>
 1 1      1      1        soil_4 fe_4 
 2 1      1      2        soil_4 fe_2 
 3 1      1      3        soil_4 fe_5 
 4 1      1      4        soil_4 fe_3 
 5 1      1      5        soil_4 fe_1 
 6 1      1      6        soil_4 fe_6 
 7 1      2      1        soil_2 fe_4 
 8 1      2      2        soil_2 fe_2 
 9 1      2      3        soil_2 fe_5 
10 1      2      4        soil_2 fe_3 
# ℹ 86 more rows
…
fit <- lm(drymatter ~ trt + cols + rows, data = lsd_tbl)

57.5.1 … mit expand_grid() (3-faktoriell)

incomplete_long_tbl <- expand_grid(block = 1:2, soil = 1:4, fert = 1:6) %>% 
  mutate(block = factor(block, labels = str_c("Block ", 1:2)),
         soil = factor(soil, labels = str_c("soil_", 1:4)),
         fert = factor(fert, label = str_c("fe_", 1:6))) %>% 
  group_by(block) %>% 
  mutate(fert = sample(fert),
         soil = sample(soil)) 

incomplete_long_tbl

# A tibble: 48 × 3
# Groups:   block [2]
   block   soil   fert 
   <fct>   <fct>  <fct>
 1 Block 1 soil_3 fe_3 
 2 Block 1 soil_3 fe_3 
 3 Block 1 soil_1 fe_4 
 4 Block 1 soil_1 fe_6 
 5 Block 1 soil_3 fe_2 
 6 Block 1 soil_3 fe_6 
 7 Block 1 soil_2 fe_2 
 8 Block 1 soil_4 fe_3 
 9 Block 1 soil_1 fe_4 
10 Block 1 soil_2 fe_2 
# ℹ 38 more rows
…
