Skript Bio Data Science - 55 Versuchsplanung in R
…
\[
y \sim \overbrace{trt}^{f_1} + \underbrace{block}_{f_2} + \overbrace{location}^{f_3}
\]

data_long_tbl <- expand_grid(location = 1:2, trt = 1:4, block = 1:4) %>% 
  mutate(location = factor(location, labels = c("north", "south")),
         trt = factor(trt, labels = c("ctrl", "A", "B", "C")),
         block = factor(block, labels = as.roman(1:4)),
         id = sample(1:n()))

data_long_tbl

# A tibble: 32 × 4
   location trt   block    id
   <fct>    <fct> <fct> <int>
 1 north    ctrl  I        15
 2 north    ctrl  II       13
 3 north    ctrl  III       7
 4 north    ctrl  IV       10
 5 north    A     I        12
 6 north    A     II        6
 7 north    A     III      21
 8 north    A     IV       24
 9 north    B     I        14
10 north    B     II        8
# ℹ 22 more rows
…
