Bio Data Science - 24 Einfache Designs
…
Zum Glück kriegen wir hier auch die Zeilen und Spalten direkt von der Funktion design.lsd() geliefert. Leider als Faktoren, so dass wir die Faktoren nochmal in Zahlen umwandeln damit es später mit der Visualisierung klappt.

R Code [zeigen / verbergen]

lsd_book_tbl <- lsd_obj |> 
  pluck("book") |> 
  as_tibble() |> 
  set_names(c("plots", "rows", "cols", "trt")) |> 
  mutate(rows = as.numeric(rows),
         cols = as.numeric(cols))
lsd_book_tbl

# A tibble: 25 × 4
   plots  rows  cols trt  
   <dbl> <dbl> <dbl> <fct>
 1   101     1     1 D    
 2   102     1     2 C    
 3   103     1     3 ctrl 
 4   104     1     4 B    
 5   105     1     5 A    
 6   201     2     1 C    
 7   202     2     2 B    
 8   203     2     3 D    
 9   204     2     4 A    
10   205     2     5 ctrl 
# ℹ 15 more rows
…
