Bio Data Science - 9 Daten einlesen
…
D
4
15.26
17.52
13.81
17.35
14.25
17.61

data_tbl %>% 
  gather(rep, value, rep_1:rep_6) %>% 
  arrange(treatment, block)

# A tibble: 96 × 4
   treatment block rep   value
   <fct>     <int> <chr> <dbl>
 1 A             1 rep_1  11.8
 2 A             1 rep_2  17.5
 3 A             1 rep_3  17.9
 4 A             1 rep_4  18.8
 5 A             1 rep_5  17.8
 6 A             1 rep_6  16.0
 7 A             2 rep_1  16.0
 8 A             2 rep_2  12.8
 9 A             2 rep_3  21.7
10 A             2 rep_4  17.1
# … with 86 more rows
