Bio Data Science - 11 Daten einlesen
…
Abbildung 11.3— Beispiel für eine Exceldatentabelle mit Messwiederholungen.

Wir nutzen die Funktion pivot_longer() um die Spalten t1 bis t4 zusammenzufassen und untereinander zu kleben. Die Spalte treatment wird dann einfach viermal wiederholt. Wir müssen dann noch die Spalte für den Faktor benennen und die Spalte für die eigentlichen Messwerte. Beides machen wir einmal über die Option names_to = und values_to =. Wir haben dann im Anschluss einen Datensatz im Long-Format mit dem wir dann weiterarbeiten können.

R Code [zeigen / verbergen]

read_excel("data/germination_data.xlsx") |> 
  select(treatment, t1:t4) |> 
  pivot_longer(cols = t1:t4, 
               names_to = "time_point", 
               values_to = "weight")

# A tibble: 80 × 3
   treatment time_point weight
   <chr>     <chr>       <dbl>
 1 control   t1             16
 2 control   t2             21
 3 control   t3             23
 4 control   t4             23
 5 control   t1             17
 6 control   t2             19
 7 control   t3             18
 8 control   t4             24
 9 control   t1             16
10 control   t2             22
# ℹ 70 more rows
…
Und dann kannst du dir noch über die Funktion ldply() einfach einen Datensatz aus den Listen zusammenbauen. Ich nutze danach noch die Funktion as_tibble() um eine bessere Ausgabe der Daten zu haben. Das Schöne ist hier, dass mir dann noch eine Spalte mit der .id der Listennamen generiert wird. Da habe ich dann wirklich alles zusammen.

R Code [zeigen / verbergen]

data_lst |> 
  ldply() |> 
  as_tibble()

# A tibble: 21 × 6
   .id   animal jump_length infected flea_count grade
   <chr> <chr>        <dbl>    <dbl>      <dbl> <dbl>
 1 day_1 dog            8.9        1         NA    NA
 2 day_1 dog           11.8        1         NA    NA
 3 day_1 dog            8.2        0         NA    NA
 4 day_1 cat            4.3        1         NA    NA
 5 day_1 cat            7.9        0         NA    NA
 6 day_1 cat            6.1        0         NA    NA
 7 day_1 fox            7.7        1         NA    NA
 8 day_1 fox            8.1        1         NA    NA
 9 day_1 fox            9.1        1         NA    NA
10 day_3 cat            3.2        1         12     7
# ℹ 11 more rows
…
