Skript Bio Data Science - 13 Daten bearbeiten
…
13.2 Spalten wählen mit select()

YouTube - Spalten auswählen mit select()

Du findest auf YouTube Einführung in R - Teil 12 - Spalten auswählen mit select() als Video zum nochmal anschauen.

Wir nutzen die Funktion select()um Spalten zu wählen.

Der Datensatz, den wir im Experiment erschaffen, ist meist riesig. Jetzt könnten wir natürlich eine Exceltabelle mit unterschiedlichen Sheets bzw. Reitern erstellen oder aber die Spalten die wir brauchen in R selektieren. Wir nutzen die Funktion select()um Spalten zu wählen. Im folgenden Codeblock wählen wir die Spalten animal, jump_length und flea_count.

data_tbl %>% 
  select(animal, jump_length, flea_count)

# A tibble: 21 × 3
   animal jump_length flea_count
   <chr>        <dbl>      <dbl>
 1 dog            5.7         18
 2 dog            8.9         22
 3 dog           11.8         17
 4 dog            8.2         12
 5 dog            5.6         23
 6 dog            9.1         18
 7 dog            7.6         21
 8 cat            3.2         12
 9 cat            2.2         13
10 cat            5.4         11
# … with 11 more rows

Wir können die Spalten beim selektieren auch umbenennen und in eine andere Reihenfolge bringen.

data_tbl %>% 
  select(Sprungweite = jump_length, flea_count, animal)

# A tibble: 21 × 3
   Sprungweite flea_count animal
         <dbl>      <dbl> <chr> 
 1         5.7         18 dog   
 2         8.9         22 dog   
 3        11.8         17 dog   
 4         8.2         12 dog   
 5         5.6         23 dog   
 6         9.1         18 dog   
 7         7.6         21 dog   
 8         3.2         12 cat   
 9         2.2         13 cat   
10         5.4         11 cat   
# … with 11 more rows
…
Du findest auf der englischen Hilfeseite für mutate() noch weitere Beispiele für die Nutzung. Insbesondere die Nutzung von mutate() über mehrere Spalten gleichzeitig erlaubt sehr effiezientes Programmieren. Aber das ist für den Anfang etwas viel.

Die Funktionen select(), filter() und mutate() in R

Bitte schaue dir auch die Hilfeseiten der Funktionen an. In diesem Skript kann ich nicht alle Funktionalitäten der Funktionen zeigen. Oder du kommst in das R Tutorium welches ich anbiete und fragst dort nach den Möglichkeiten Daten in R zu verändern.

13.5 Gruppieren mit group_by()

Sobald wir einen Faktor erschaffen haben, können wir die Daten in R auch nach dem Faktor gruppieren. Das heißt wir nutzen die Funktion group_by() um R mitzuteilen, dass nun folgende Funktionen getrennt für die einzelen Gruppen erfolgen sollen. Im folgenden Codeblock siehst du die Anwendung.

data_tbl %>% 
  mutate(animal = as_factor(animal)) %>% 
  group_by(animal)

# A tibble: 21 × 5
# Groups:   animal [3]
   animal jump_length flea_count grade infected
   <fct>        <dbl>      <dbl> <dbl>    <dbl>
 1 dog            5.7         18     8        0
 2 dog            8.9         22     8        1
 3 dog           11.8         17     6        1
 4 dog            8.2         12     8        0
 5 dog            5.6         23     7        1
 6 dog            9.1         18     7        0
 7 dog            7.6         21     9        0
 8 cat            3.2         12     7        1
 9 cat            2.2         13     5        0
10 cat            5.4         11     7        0
# … with 11 more rows
…
Regular expressions in stingr

Regular expressions

data_tbl %>% 
  select(matches("_"))

# A tibble: 21 × 2
   jump_length flea_count
         <dbl>      <dbl>
 1         5.7         18
 2         8.9         22
 3        11.8         17
 4         8.2         12
 5         5.6         23
 6         9.1         18
 7         7.6         21
 8         3.2         12
 9         2.2         13
10         5.4         11
# … with 11 more rows

data_tbl %>% 
  select(one_of("animal", "grade"))

# A tibble: 21 × 2
   animal grade
   <chr>  <dbl>
 1 dog        8
 2 dog        8
 3 dog        6
 4 dog        8
 5 dog        7
 6 dog        7
 7 dog        9
 8 cat        7
 9 cat        5
10 cat        7
# … with 11 more rows
…
