13 Reguläre Ausdrücke – Bio Data Science
…
Wenn die Umwandlung mit as_date() nicht klappt, musst du nochmal über parse_date_time() gehen und angeben, wie dein Datum formatiert ist.

Auf der Hilfeseite der Funktion parse_date_time() erfährst du dann mehr über User friendly date-time parsing functions

Schauen wir uns einmal ein Beispiel für Daten an. Ich habe hier die Daten von Deutschen Wetterdienst runtergeladen und möchte die Spalte jjjjmmdd in ein Datum in R umwandeln.

R Code [zeigen / verbergen]

time_tbl <- read_table("data/day_values_osnabrueck.txt") |> 
  clean_names() |> 
  select(jjjjmmdd) |> 
  print(n = 3)

# A tibble: 501 × 1
  jjjjmmdd
     <dbl>
1 20221030
2 20221029
3 20221028
# ℹ 498 more rows

Wir nehmen die Datumsspalte, die eine Zahl ist und transformieren die Spalte in einen character. Danach können wir dann die Funktion as_date() nutzen um uns ein Datum wiedergeben zu lassen.

R Code [zeigen / verbergen]

time_tbl |> 
  mutate(jjjjmmdd = as.character(jjjjmmdd),
         jjjjmmdd = as_date(jjjjmmdd)) |> 
  print(n = 3)

# A tibble: 501 × 1
  jjjjmmdd  
  <date>    
1 2022-10-30
2 2022-10-29
3 2022-10-28
# ℹ 498 more rows

Wie wir sehen passt die Umwandlung in diesem Fall hervorragend. Die Funktion as_date() erkennt das Jahr, den Monat und den Tag und baut uns dann die Datumsspalte zusammen. Meistens passt es auch, dann können wir hier enden.

Als eine Alternative haben wir auch die Möglichkeit die Funktion as.Date() zu nutzen. Hier können wir das Datumformat in einer etwas kryptischen Form angeben. Schauen wir uns erst die Funktion in Arbeit an und dann was wir hier gemacht haben.

R Code [zeigen / verbergen]

time_tbl |> 
  mutate(jjjjmmdd = as.character(jjjjmmdd),
         jjjjmmdd = as.Date(jjjjmmdd, "%Y%m%d")) |> 
  print(n = 3)

# A tibble: 501 × 1
  jjjjmmdd  
  <date>    
1 2022-10-30
2 2022-10-29
3 2022-10-28
# ℹ 498 more rows
…
