Skript Bio Data Science - 51 Nicht lineare Regression
…
Ich habe mir dann die Mittelwerte genommen und für jede iodine/ki-Kombination noch zwei Werte ergänzt um dann noch etwas Streuung zu bekommen. So habe ich dann nur drei Beobachtungen pro Kombination, aber die Anzahl soll hier erstmal reichen. Du findest die Werte in der Datei zerforschen_regression.xlsx. Hier ist die Datei in einem Auszug dann einmal geladen und dargestellt.

regression_tbl <- read_excel("data/zerforschen_regression.xlsx") %>% 
  mutate(type = as_factor(type))
regression_tbl 

# A tibble: 36 × 3
   type  iodine content
   <fct>  <dbl>   <dbl>
 1 KI      0       0.1 
 2 KI      0       0.05
 3 KI      0       0.15
 4 KI      0.25  100   
 5 KI      0.25  105   
 6 KI      0.25  110   
 7 KI      0.5   180   
 8 KI      0.5   190   
 9 KI      0.5   200   
10 KI      0.75  275   
# ℹ 26 more rows
…
