Skript Bio Data Science - 45 Linear Probability Model
…
Results are averaged over the levels of: sex 
Confidence level used: 0.95 
significance level used: alpha = 0.05 
NOTE: If two or more means share the same grouping symbol,
      then we cannot show them to be different.
      But we also did not show them to be the same. 

n_grp <- 10
toy_tbl <- tibble(trt = gl(3, n_grp, labels = c("ctrl", "roundUp", "killAll")),
                  infected = c(rbinom(n_grp, 1, 0.8), rbinom(n_grp, 1, 0.5), rbinom(n_grp, 1, 0.3)))

toy_tbl

# A tibble: 30 × 2
   trt   infected
   <fct>    <int>
 1 ctrl         1
 2 ctrl         0
 3 ctrl         1
 4 ctrl         0
 5 ctrl         1
 6 ctrl         1
 7 ctrl         1
 8 ctrl         1
 9 ctrl         1
10 ctrl         1
# ℹ 20 more rows
…
