55 Marginal effect models – Bio Data Science
…
R Code [zeigen / verbergen]

avg_jump_hatched <- mean(flea_model_tbl$hatched)
avg_jump_hatched

[1] 2.772599

R Code [zeigen / verbergen]

jump_hatched_fitted <- model_sq |> 
  augment(newdata = tibble(hatched = c(avg_jump_hatched, avg_jump_hatched + 0.001)))
jump_hatched_fitted

# A tibble: 2 × 2
  hatched .fitted
    <dbl>   <dbl>
1    2.77    86.5
2    2.77    86.5

R Code [zeigen / verbergen]

delta_y <- (jump_hatched_fitted$.fitted[2] - jump_hatched_fitted$.fitted[1])
delta_x <- 0.001

R Code [zeigen / verbergen]

delta_y / delta_x

[1] 13.71042

R Code [zeigen / verbergen]

model_sq |> 
  avg_slopes(newdata = "mean")

 Estimate Std. Error    z Pr(>|z|)   S 2.5 % 97.5 %
     13.7       6.34 2.16   0.0306 5.0  1.28   26.1

Term: hatched
Type: response
Comparison: dY/dX

55.8 Vorhersagen (eng. predictions)

R Code [zeigen / verbergen]

loess_fit <- loess(activity ~ ph, data = enzyme_tbl)

R Code [zeigen / verbergen]

predictions(loess_fit)

Warning: Unable to extract a variance-covariance matrix from this model.

 Estimate
   -37.22
   -37.22
   -37.22
    -9.33
    -9.33
--- 33 rows omitted. See ?print.marginaleffects ---
…
