Skript Bio Data Science - 43 Logistische Regression
…
• step_dummy()

── Model ───────────────────────────────────────────────────────────────────────
Logistic Regression Model Specification (classification)

Computational engine: glm 

pig_fit <- pig_wflow %>% 
  fit(data = pig_tbl)

predict(pig_fit, new_data = pig_tbl)

# A tibble: 412 × 1
   .pred_class
   <fct>      
 1 1          
 2 0          
 3 0          
 4 0          
 5 1          
 6 1          
 7 0          
 8 0          
 9 1          
10 1          
# … with 402 more rows

pig_aug <- augment(pig_fit, new_data = pig_tbl) %>% 
  select(infected, matches("^\\."))

pig_aug

# A tibble: 412 × 4
   infected .pred_class .pred_0 .pred_1
   <fct>    <fct>         <dbl>   <dbl>
 1 1        1            0.0977   0.902
 2 0        0            0.650    0.350
 3 0        0            0.764    0.236
 4 0        0            0.587    0.413
 5 1        1            0.0568   0.943
 6 1        1            0.0961   0.904
 7 0        0            0.743    0.257
 8 0        0            0.561    0.439
 9 1        1            0.101    0.899
10 1        1            0.168    0.832
# … with 402 more rows
…
