56 Beta Regression – Bio Data Science
…
R Code [zeigen / verbergen]

emm_obj <- fungi_fit |> 
  emmeans(~ gen | bunt) 

Im Folgenden einmal der Code für das compact letter display. Ich zeige auch hier die Ausgabe nur einmal als tibble damit die Ausgabe nicht so lang wird. Wir sehen dann gleich mal den mittleren Pilzbefall pro Linie und Pilzart. Es sind wirklich viele Ergebnisse für die Vergleiche, da wir wirklich viele Level der Faktorkombination haben. Irgendwann ist dann auch das compact letter display am Ende.

R Code [zeigen / verbergen]

emm_cld <- emm_obj |> 
  cld(Letters = letters) |> 
  as_tibble() 
emm_cld

# A tibble: 24 × 8
   gen       bunt   emmean      SE    df asymp.LCL asymp.UCL .group
   <fct>     <fct>   <dbl>   <dbl> <dbl>     <dbl>     <dbl> <chr> 
 1 Albit     B1    0.00731 0.00499   Inf -0.00247     0.0171 " a  "
 2 Oro       B1    0.0109  0.00708   Inf -0.00293     0.0248 " a  "
 3 Turkey    B1    0.0835  0.0272    Inf  0.0302      0.137  "  b "
 4 Hybrid128 B1    0.832   0.0378    Inf  0.758       0.907  "   c"
 5 Oro       B51   0.0186  0.0107    Inf -0.00246     0.0396 " a  "
 6 Albit     B51   0.0250  0.0133    Inf -0.000979    0.0511 " a  "
 7 Turkey    B51   0.254   0.0445    Inf  0.167       0.341  "  b "
 8 Hybrid128 B51   0.941   0.0226    Inf  0.896       0.985  "   c"
 9 Oro       B4    0.0418  0.0185    Inf  0.00565     0.0780 " a " 
10 Albit     B4    0.0906  0.0283    Inf  0.0350      0.146  " a " 
# ℹ 14 more rows
…
