Bio Data Science - 39 Multiple lineare Regression
…
39.3.3 Kategorielles \(x\) mit >2 Leveln

Nachdem wir das Problem der Interpretation von einem kategoriellen \(x\) mit zwei Leveln verstanden haben, werden wir uns jetzt den Fall für ein kategoriellen \(x\) mit drei oder mehr Leveln anschauen. Wir nutzen hier nur drei Level, da es für vier oder fünf Level gleich abläuft. Du kannst das Datenbeispiel gerne auch noch um eine vierte Gruppe erweitern und schauen was sich da ändert.

Unser Datensatz besteht aus drei Gruppen A, B und C mit den Mittelwerten von 10, 15 und 3. Hierbei ist wichtig, dass wir in der Gruppe C nur einen Mittelwert von 3 haben. Also wir haben keinen linearen Anstieg über die drei Gruppen.

set.seed(20339537)
cat_three_tbl <- tibble(A = rnorm(n = 7, mean = 10, sd = 1),
                        B = rnorm(n = 7, mean = 15, sd = 1),
                        C = rnorm(n = 7, mean = 3, sd = 1)) |> 
  gather(key = x, value = y) |> 
  mutate(x = as_factor(x))
cat_three_tbl

# A tibble: 21 × 2
   x         y
   <fct> <dbl>
 1 A     10.0 
 2 A     10.8 
 3 A     10.7 
 4 A     11.0 
 5 A      9.25
 6 A      8.98
 7 A      9.71
 8 B     15.1 
 9 B     16.0 
10 B     14.5 
# ℹ 11 more rows
…
