Bio Data Science - 60 Äquivalenz oder Nichtunterlegenheit
…
Abbildung 60.1— Ursprüngliche Abbildung, die nachgebaut werden soll. Zwei lineare Regressionen mit den jeweiligen Regressionsgleichungen.

Wir laden als erstes wieder den Datensatz, den ich mir aus der obigen Abbildung erstellt habe. Wie immer beim Zerforschen habe ich nicht so genau drauf geachtet nur das die Zahlen so grob stimmen. Die Erstellung der Daten kann hier recht langwierig sein, aber hier geht es ja mehr um die Nutzung von ggplot. Also mach dir keinen Gedanken, wenn die Punkte nicht so perfekt passen.

R Code [zeigen / verbergen]

regression_tbl <- read_excel("data/zerforschen_regression_linear.xlsx") |> 
  mutate(type = factor(type, labels = c("Basil", "Oregano")))
regression_tbl 

# A tibble: 40 × 3
   type  washed unwashed
   <fct>  <dbl>    <dbl>
 1 Basil      0        0
 2 Basil     10       15
 3 Basil     20       18
 4 Basil     30       32
 5 Basil     40       36
 6 Basil     50       52
 7 Basil     60       59
 8 Basil     70       72
 9 Basil     80       85
10 Basil    100      105
# ℹ 30 more rows
…
