Bio Data Science - 61 Fragebogenanalyse
…
61.4.3 Zusammenfassen

…von einzelnen Fragen

feed_tbl <- tiger_tbl |>
  select(matches("Fuetterung")) |> 
  mutate(across(matches("Fuetterung"), \(x) as.numeric(x)-1)) |> 
  mutate(sum_feeding = rowSums(across(matches("Fuetterung"))))
feed_tbl |> 
  select(sum_feeding, everything())

# A tibble: 173 × 5
   sum_feeding f1Fuetterung_wöchentlich f2Fuetterung_täglich
         <dbl>                    <dbl>                <dbl>
 1           0                        0                    0
 2           3                        1                    0
 3           1                        1                    0
 4           2                        1                    0
 5           2                        1                    0
 6           1                        0                    0
 7           4                        1                    1
 8           1                        0                    0
 9           1                        0                    0
10           1                        0                    0
# ℹ 163 more rows
# ℹ 2 more variables: f3Fuetterung_anteil_pflanzlich <dbl>,
#   f4Fuetterung_joghurt <dbl>
…
