42 Der Post-hoc Test – Bio Data Science
…
Als erstes brauchen wir die Daten. Die Daten habe ich mir in dem Datensatz zerforschen_barplot_2fac_target_emmeans.xlsx selber ausgedacht. Ich habe einfach die obige Abbildung genommen und den Mittelwert abgeschätzt. Dann habe ich die fünf Werte alle um den Mittelwert streuen lassen. Ich brauche hier eigentlich mehr als fünf Werte, sonst kriegen wir bei emmeans() und der Interaktion im gls()-Modell Probleme, aber da gibt es dann bei kleinen Fallzahlen noch ein Workaround. Bitte nicht mit weniger als fünf Beobachtungen versuchen, dann wird es schwierig mit der Konsistenz der Schätzer aus dem Modell.

Ach, und ganz wichtig. Wir entfernen die Kontrolle, da wir die Kontrolle nur mit einer Iodid-Stufe gemessen haben. Dann können wir weder die Interaktion rechnen, noch anständig eine Interpretation durchführen.

R Code [zeigen / verbergen]

barplot_tbl <- read_excel("data/zerforschen_barplot_2fac_target_emmeans.xlsx")  |>  
  mutate(time = factor(time, 
                       levels = c("ctrl", "7", "11", "15", "19"),
                       labels = c("Contr.", "07:00", "11:00", "15:00", "19:00")),
         type = as_factor(type)) |> 
  filter(time != "Contr.")
barplot_tbl 

# A tibble: 40 × 3
   time  type  iodine
   <fct> <fct>  <dbl>
 1 07:00 KIO3      50
 2 07:00 KIO3      55
 3 07:00 KIO3      60
 4 07:00 KIO3      52
 5 07:00 KIO3      62
 6 07:00 KI        97
 7 07:00 KI        90
 8 07:00 KI        83
 9 07:00 KI        81
10 07:00 KI        98
# ℹ 30 more rows
…
Als erstes brauchen wir die Daten. Die Daten habe ich mir in dem Datensatz zerforschen_barplot_2fac_target_emmeans.xlsx selber ausgedacht. Ich nehme hier die gleichen Daten wie für den Barplot. Ich habe einfach die obige Abbildung genommen und den Mittelwert abgeschätzt. Dann habe ich die fünf Werte alle um den Mittelwert streuen lassen. Ich brauche hier eigentlich mehr als fünf Werte, sonst kriegen wir bei emmeans() und der Interaktion im gls()-Modell Probleme, aber da gibt es dann bei kleinen Fallzahlen noch ein Workaround. Bitte nicht mit weniger als fünf Beobachtungen versuchen, dann wird es schwierig mit der Konsistenz der Schätzer aus dem Modell.

Ach, und ganz wichtig. Wir entfernen die Kontrolle, da wir die Kontrolle nur mit einer Iodid-Stufe gemessen haben. Dann können wir weder die Interaktion rechnen, noch anständig eine Interpretation durchführen.

R Code [zeigen / verbergen]

boxplot_tbl <- read_excel("data/zerforschen_barplot_2fac_target_emmeans.xlsx") |> 
  mutate(time = factor(time, 
                       levels = c("ctrl", "7", "11", "15", "19"),
                       labels = c("Contr.", "07:00", "11:00", "15:00", "19:00")),
         type = as_factor(type)) |> 
  filter(time != "Contr.")
boxplot_tbl  

# A tibble: 40 × 3
   time  type  iodine
   <fct> <fct>  <dbl>
 1 07:00 KIO3      50
 2 07:00 KIO3      55
 3 07:00 KIO3      60
 4 07:00 KIO3      52
 5 07:00 KIO3      62
 6 07:00 KI        97
 7 07:00 KI        90
 8 07:00 KI        83
 9 07:00 KI        81
10 07:00 KI        98
# ℹ 30 more rows
…
Dann können wir auch schon den Gruppenvergleich mit dem R Paket {emmeans} rechnen. Wir nutzen hier die Option vcov. = sandwich::vcovHAC um heterogene Varianzen zuzulassen. Im Weiteren adjustieren wir nicht für die Anzahl der Vergleiche und lassen uns am Ende das compact letter display wiedergeben.

R Code [zeigen / verbergen]

emm_tbl <- boxplot_mult_nest_model_tbl |> 
  mutate(emm = map(model, emmeans, ~trt, vcov. = sandwich::vcovHAC)) |> 
  mutate(cld = map(emm, cld, Letters = letters, adjust = "none")) |> 
  unnest(cld) |> 
  select(type, plant_measure, trt, rsp = emmean, group = .group) |> 
  mutate(group = str_trim(group))

emm_tbl

# A tibble: 24 × 5
# Groups:   type, plant_measure [8]
   type      plant_measure     trt     rsp group
   <fct>     <fct>             <fct> <dbl> <chr>
 1 Substrate Fresh weight (g)  UWF    95.4 a    
 2 Substrate Fresh weight (g)  TWF   101   a    
 3 Substrate Fresh weight (g)  Peat  105   a    
 4 Substrate Dry weight (g)    UWF    12.3 a    
 5 Substrate Dry weight (g)    Peat   14.3 ab   
 6 Substrate Dry weight (g)    TWF    15.1 b    
 7 Substrate Plant height (cm) TWF    37.9 a    
 8 Substrate Plant height (cm) Peat   38.0 a    
 9 Substrate Plant height (cm) UWF    39.1 a    
10 Substrate Flower number     UWF    14.6 a    
# ℹ 14 more rows
…
