51 Fehlende Werte – Bio Data Science
…
R Code [zeigen / verbergen]

n_miss(pig_miss_tbl)/n_complete(pig_miss_tbl)

[1] 0.1066344

Über die Funktion miss_case_summary() kannst du dir dann noch mehr Informationen zu den einzelnen Beobachtungen wiedergeben lassen. Über die Funktion print() kannst du dir dann noch mehr Zeilen als die normalen zehn Zeilen ausgeben lassen.

R Code [zeigen / verbergen]

pig_miss_tbl |> 
  miss_case_summary() |> 
  print(n = 12)

# A tibble: 412 × 3
    case n_miss pct_miss
   <int>  <int>    <dbl>
 1   113      4       40
 2   321      4       40
 3   333      4       40
 4    14      3       30
 5    20      3       30
 6    74      3       30
 7    75      3       30
 8    88      3       30
 9    92      3       30
10   158      3       30
11   233      3       30
12   241      3       30
# ℹ 400 more rows
…
Leider ist es so, dass wir nicht immer mit pool() arbeiten können, da wir für unsere Funktion, die wir nutzen wollen keine Anwendung in pool() finden. Salopp gesagt, wir erhalten einen Fehler, wenn wir das Modell oder die Funktion poolen wollen. In diesem Fall hilft die Funktion complete() mit der Option action = "long" und include = TRUE etwas weiter. Wir erhlaten damit die fünf imputierten Datensätze und den ursprünglichen Datensatz als Long-Format wiedergegeben. Damit können wir dann weiterarbeiten. Das ist aber dann das Thema für ein anderes Kapitel.

R Code [zeigen / verbergen]

imp_all_gummi_tbl <- imp_gummi_tbl |> 
  complete(action = "long", include = TRUE) |> 
  select(-.id, imp_run = .imp) |> 
  mutate(imp_run = as_factor(imp_run)) |> 
  as_tibble()

imp_all_gummi_tbl

# A tibble: 5,790 × 8
   gender   age height semester count_bears count_color most_liked imp_run
   <fct>  <dbl>  <dbl>    <dbl>       <dbl> <fct>       <fct>      <fct>  
 1 m         35    193       10           9 3           lightred   0      
 2 w         21    159        6          10 5           yellow     0      
 3 w         21    159        6           9 6           white      0      
 4 w         36    180       10          10 5           white      0      
 5 m         22    180        3          10 6           white      0      
 6 <NA>      NA     NA       NA          10 5           white      0      
 7 m         22    180        3          10 5           green      0      
 8 w         21    163        3          13 5           green      0      
 9 m         22    170        3           9 5           green      0      
10 m         23    176        3           9 5           white      0      
# ℹ 5,780 more rows
…
