Bio Data Science - 63 Clusteranalysen
…
63.3.2 Standardisieren

Die Standardisierung zwingt Variablen in eine \(\mathcal{N(0,1)}\) Standardnormalverteilung. Das heißt, wir transformieren alle Variablen auf einen Mittelwert von \(0\) und einer Standardabweichung von \(1\). Das macht dann auch die Daten sehr schon gleichförmig. Wir wollen also für unseren Gummibärchendatensatz, dass das Alter einen Mittelwert von 0 und eien Standardabweichung von 1 kriegt. Hier nutzen wir auch die Funktion transform() aus dem R Paket {dlookr} mit der Option zscore. Es macht keinen Sinn Faktoren zu standardisieren, wir standardisieren nur numerische Spalte und das Semester zu transformieren ist schon so eine grenzwertige Sache.

R Code [zeigen / verbergen]

scale_gummi_tbl <- gummi_tbl |> 
  mutate(gender = as_factor(gender),
         age = transform(age, "zscore"),
         height = transform(height, "zscore"),
         semester = transform(semester, "zscore"),
         most_liked = as_factor(most_liked))
scale_gummi_tbl

# A tibble: 210 × 5
   gender age        height     semester    most_liked
   <fct>  <transfrm> <transfrm> <transfrm>  <fct>     
 1 m       1.3171177  2.2399120  2.65128580 lightred  
 2 w      -0.4374478 -1.3833258  1.09714758 yellow    
 3 w      -0.4374478 -1.3833258  1.09714758 white     
 4 w       1.4424438  0.8545564  2.65128580 white     
 5 m      -0.3121217  0.8545564 -0.06845609 white     
 6 m      -0.3121217  0.8545564 -0.06845609 green     
 7 w      -0.4374478 -0.9570626 -0.06845609 green     
 8 m      -0.3121217 -0.2111018 -0.06845609 green     
 9 m      -0.1867956  0.4282931 -0.06845609 white     
10 m      -0.5627739  0.8545564 -0.06845609 lightred  
# ℹ 200 more rows
…
R Code [zeigen / verbergen]

kmeans_fit <- kmeans_spec |>
  fit(~ age + height + semester,
      data = gummi_tbl)

Wir können auch hier über die Funktion extract_cluster_assignment() die Clusterzugehörigkeiten erhalten. Damit können wir dann prinzipiell auch schon aufhören und die Visualisierungen erstellen, die wir aus den vorherigen Abschnitten kennen.

R Code [zeigen / verbergen]

kmeans_fit |>
  extract_cluster_assignment()

# A tibble: 210 × 1
   .cluster 
   <fct>    
 1 Cluster_1
 2 Cluster_2
 3 Cluster_2
 4 Cluster_3
 5 Cluster_1
 6 Cluster_1
 7 Cluster_2
 8 Cluster_2
 9 Cluster_1
10 Cluster_1
# ℹ 200 more rows
…
