45 Simple lineare Regression – Bio Data Science
…
predict(fac1_fit, newdata = fac1_new_tbl) |> round(2)

   1    2    3 
4.74 4.74 9.16 

Warum jetzt zweimal der gleiche Wert und dann ein anderer Wert für die Sprungweite? Du erhälst eben zweimal die mittlere Sprungweite für die Katzenflöhe und einmal die mittlere Sprungweite für den Fuchsfloh wiedergegeben. Mehr kann das einfaktorielle Modell erstmal nicht in der Vorhersage liefern. Ich habe dir unten nochmal den Zusammenhang in einer Abbildung dargestellt.

Dann kommen hier einmal die vorhergesagten Sprungweiten für die einzelnen Flöhe aus den jeweiligen Tierarten. Wie du hier sehr gut siehst, dann liegen alle vorhergesagten Sprungweiten auf dem Mittelwert der jeweiligen Gruppe. Nichts anderes macht ja auch eine einfaktorielle Modellierung. Wir bestimmen die lokalen Mittelwerte.

R Code [zeigen / verbergen]

fac1_fit |> augment() |> 
  select(jump_length, animal, .fitted, .resid) 

# A tibble: 21 × 4
   jump_length animal .fitted  .resid
         <dbl> <fct>    <dbl>   <dbl>
 1         5.7 dog       8.13 -2.43  
 2         8.9 dog       8.13  0.771 
 3        11.8 dog       8.13  3.67  
 4         5.6 dog       8.13 -2.53  
 5         9.1 dog       8.13  0.971 
 6         8.2 dog       8.13  0.0714
 7         7.6 dog       8.13 -0.529 
 8         3.2 cat       4.74 -1.54  
 9         2.2 cat       4.74 -2.54  
10         5.4 cat       4.74  0.657 
# ℹ 11 more rows
…
