Skript Bio Data Science - 42 Multinomiale / Ordinale logistische Regression
…
z_mat <- summary(multinom_fit)$coefficients/summary(multinom_fit)$standard.errors
p_n <- (1 - pnorm(abs(z_mat), 0, 1)) * 2
p_n

          (Intercept)       age   sexmale locationnortheast locationnorthwest
pre-frail   0.9598751 0.1257752 0.1582895         0.1961841         0.1307792
frail       0.4775590 0.3466251 0.1394363         0.4904718         0.1320407
          locationwest   activity        crp bloodpressure    weight creatinin
pre-frail    0.8581044 0.02383117 0.31534322     0.6378318 0.2988003 0.2484111
frail        0.8648885 0.45391987 0.03667053     0.2399193 0.9118397 0.1278763

multinom_fit %>% tidy(conf.int = TRUE, exponentiate = TRUE)

# A tibble: 22 x 8
   y.level   term        estimate std.error statistic p.value conf.low conf.high
   <chr>     <chr>          <dbl>     <dbl>     <dbl>   <dbl>    <dbl>     <dbl>
 1 pre-frail (Intercept)    1.19     3.51      0.0503  0.960   0.00123  1158.   
 2 pre-frail age            1.04     0.0252    1.53    0.126   0.989       1.09 
 3 pre-frail sexmale        1.57     0.318     1.41    0.158   0.840       2.93 
 4 pre-frail locationno~    0.657    0.325    -1.29    0.196   0.348       1.24 
 5 pre-frail locationno~    0.645    0.290    -1.51    0.131   0.365       1.14 
 6 pre-frail locationwe~    0.944    0.320    -0.179   0.858   0.505       1.77 
 7 pre-frail activity       0.825    0.0849   -2.26    0.0238  0.699       0.975
 8 pre-frail crp            0.923    0.0794   -1.00    0.315   0.790       1.08 
 9 pre-frail bloodpress~    0.983    0.0354   -0.471   0.638   0.918       1.05 
10 pre-frail weight         1.09     0.0800    1.04    0.299   0.929       1.27 
# ... with 12 more rows
…
