Bio Data Science - 39 Modelgüte
…
39.4 Residualplot

Die erste Frage ist natürlich, geht die Gerade aus dem lm()-Fit mittig durch die Punkte? Liegen also alle Punkte gleichmaäßig um die Gerade verteilt. Das ist ja die Idee der linearen Regression, wir legen eine Gerade durch eine Punktewolke und wollen das die Abstände von den Beobachtungen unterhalb und oberhalb der Gerade in etwa gleich sind. Die Abstände von den Beobachtungen nennen wir auch \(\epsilon\) als Fehler oder aber eben Residuen. Das R Paket {olsrr} mit der Hilfeseite Residual Diagnostics liefert noch mehr Möglichkeiten der Diagnose der Modellgüte über die Residuen als hier vorgestellt. Das R Paket {olsrr} funktioniert aber nur für einen normalverteiltes Outcome \(y\).

Wir wollen nun mit dem Residualplot die Frage beantworten, ob die Gerade mittig durch die Punktewolke läuft. Die Residuen \(\epsilon\) sollen normalverteilt sein mit einem Mittelwert von Null und einer Varianz von \(s^2_{\epsilon}\) und somit gilt \(\epsilon \sim \mathcal{N}(0, s^2_{\epsilon})\). In R wird in Modellausgaben die Standardabweichung der Residuen \(s_{\epsilon}\) häufig als sigma bezeichnet. Wir können auch hier die Funktion augment() aus dem R Paket {broom} nutzen um uns die Residuen wiedergeben zu lassen. Wir erhalten somit die Residuen resid und die angepassten Werte .fitted auf der Geraden über die Funktion augment(). Die Funktion augment() gibt noch mehr Informationen wieder, aber wir wollen uns jetzt erstmal auf die Residuen und deren Derivate konzentrieren.

resid_plot_tbl <- fit_1 |> 
  augment() |> 
  select(-.hat, -.cooksd)
resid_plot_tbl

# A tibble: 600 x 6
   jump_length weight .fitted .resid .sigma .std.resid
         <dbl>  <dbl>   <dbl>  <dbl>  <dbl>      <dbl>
 1        15.8   6.02    17.9 -2.09    3.27    -0.642 
 2        18.3   5.99    17.8  0.489   3.27     0.150 
 3        17.6   8.05    20.6 -3.03    3.27    -0.928 
 4        14.1   6.71    18.8 -4.72    3.27    -1.45  
 5        18.2   6.19    18.1  0.110   3.27     0.0337
 6        13.5   8.18    20.8 -7.29    3.26    -2.23  
 7        16.3   7.46    19.8 -3.54    3.27    -1.08  
 8        14.5   5.58    17.3 -2.75    3.27    -0.844 
 9        16.4   6.19    18.1 -1.75    3.27    -0.537 
10        15.1   7.53    19.9 -4.83    3.26    -1.48  
# i 590 more rows
…
