Skript Bio Data Science - 53 Clusteranalysen
…
Hier helfen natürlich auch die Funktionen von dem R Paket dplyr und der Hilfsseite von across() um mehrere Spalten schneller in mutate zu transformieren. Aber wir üben hier nur begrenzt Programmierung und es ist dann an dir dieses Problem zu lösen.

53.3.2 Standardisieren

Die Standardisierung zwingt Variablen in eine \(\mathcal{N(0,1)}\) Standardnormalverteilung. Das heißt, wir transformieren alle Variablen auf einen Mittelwert von \(0\) und einer Standardabweichung von \(1\). Das macht dann auch die Daten sehr schon gleichförmig. Wir wollen also für unseren Gummibärchendatensatz, dass das Alter einen Mittelwert von 0 und eien Standardabweichung von 1 kriegt. Hier nutzen wir auch die Funktion transform() aus dem R Paket dlookr mit der Option zscore. Es macht keinen Sinn Faktoren zu standardisieren, wir standardisieren nur numerische Spalte und das Semester zu transformieren ist schon so eine grenzwertige Sache.

scale_gummi_tbl <- gummi_tbl %>% 
  mutate(gender = as_factor(gender),
         age = transform(age, "zscore"),
         height = transform(height, "zscore"),
         semester = transform(semester, "zscore"),
         most_liked = as_factor(most_liked))
scale_gummi_tbl

# A tibble: 192 × 5
   gender age         height     semester   most_liked
   <fct>  <transfrm>  <transfrm> <transfrm> <fct>     
 1 m       1.80953590  2.3007223  2.5534970 lightred  
 2 w      -0.37262314 -1.3535636  1.0237890 yellow    
 3 w      -0.37262314 -1.3535636  1.0237890 white     
 4 w       1.96540440  0.9034953  2.5534970 white     
 5 m      -0.21675464  0.9034953 -0.1234921 white     
 6 m      -0.21675464  0.9034953 -0.1234921 green     
 7 w      -0.37262314 -0.9236476 -0.1234921 green     
 8 m      -0.21675464 -0.1712947 -0.1234921 green     
 9 m      -0.06088613  0.4735793 -0.1234921 white     
10 m      -0.52849164  0.9034953 -0.1234921 lightred  
# ℹ 182 more rows
…
Within cluster sum of squares by cluster:
[1] 4716.761 2046.435 3643.740
 (between_SS / total_SS =  59.5 %)

Available components:

[1] "cluster"      "centers"      "totss"        "withinss"     "tot.withinss"
[6] "betweenss"    "size"         "iter"         "ifault"      

kmeans_fit %>%
  extract_cluster_assignment()

# A tibble: 192 × 1
   .cluster 
   <fct>    
 1 Cluster_1
 2 Cluster_2
 3 Cluster_2
 4 Cluster_1
 5 Cluster_1
 6 Cluster_1
 7 Cluster_2
 8 Cluster_2
 9 Cluster_1
10 Cluster_1
# ℹ 182 more rows

kmeans_summary <- kmeans_fit %>%
  extract_fit_summary()

tibble(
  orig_labels = kmeans_summary$orig_labels,
  standard_labels = kmeans_summary$cluster_assignments
)

# A tibble: 192 × 2
   orig_labels standard_labels
         <int> <fct>          
 1           1 Cluster_1      
 2           3 Cluster_2      
 3           3 Cluster_2      
 4           1 Cluster_1      
 5           1 Cluster_1      
 6           1 Cluster_1      
 7           3 Cluster_2      
 8           3 Cluster_2      
 9           1 Cluster_1      
10           1 Cluster_1      
# ℹ 182 more rows
…
