Skript Bio Data Science - 35 Variablenselektion
…
Für die gaussian lineare Regression gibt es mit dem R Paket oslrr eine große Auswahl an Variable Selection Methods. Einfach mal die Möglichkeiten anschauen, die dort angeboten werden. Wir nutzen jetzt nicht alles was din oslrr möglich ist, sondern nur eien Auswahl. Zuerst müssen wir wieder unser Modell fitten. Wir nehmen alle Variablen mit rein und nutzen die Funktion lm() für ein lineares Modell mit einem normalverteilten Outcome \(y\) mit dryweight.

chickenpea_fit <- lm(dryweight ~ temp + rained + location + no3 + fe + sand + forest, 
                     data = chickpea_tbl)

Nun gibt es wirklich viele Lösungen in dem R Paket oslrr. Ich möchte einmal die Variante mit ols_step_all_possible präsnetieren. In dem Fall rechnen wir alle Modelle die gehen. Und damit meine ich wirklich alle Modelle. Deshalb filtern wir noch nach dem \(R^2_{adj}\) um nicht von dem Angebot erschlagen zu werden. Darüber hinaus möchte ich nur Modelle sehen, die maximal vier Variablen mit in dem Modell haben. Das ist zufällig von mir gewählt… ich will ja ein kleineres Modell haben.

ols_step_all_possible(chickenpea_fit) %>%
  as_tibble %>%
  arrange(desc(adjr)) %>%
  filter(n <= 4) %>% 
  select(predictors, adjr, aic) 

# A tibble: 98 x 3
   predictors                 adjr   aic
   <chr>                     <dbl> <dbl>
 1 temp rained no3 sand      0.873  598.
 2 temp location no3 sand    0.873  599.
 3 temp no3 sand             0.873  597.
 4 temp no3 sand forest      0.872  598.
 5 temp no3 fe sand          0.872  598.
 6 temp rained fe sand       0.865  604.
 7 temp rained sand          0.865  603.
 8 temp rained sand forest   0.864  605.
 9 temp rained location sand 0.864  606.
10 temp location fe sand     0.864  606.
# ... with 88 more rows
…
In diesem Abschnitt wollen wir die Variablenselektion mit einem maschinellen Lernverfahren durchführen. Im Bereich des maschinellen Lernens heist die Variablenselektion dann aber Feature Selektion. Wir versuchen jetzt die Selektion auf den Orginaldaten durchzuführen. Eigentlich wird empfohlen die Daten vorher zu normalisieren und dann mit den maschinellen Lernverfahren zu nutzen.

Standardisieren oder Normalisieren von Daten

Eine Herausforderung für maschinelle Lernverfahren sind nicht normalisierte Daten. Das heist, dass wir Variablen haben, die kategorial oder kontinuierlich sein können oder aber sehr unterschiedlich von den Einheiten sind. Deshalb wird empfohlen die Daten vorher zu Standardisieren oder zu Normalisieren. In dem sec-eda-transform kannst du mehr über das Transformieren von Daten nachlesen.

Wir nutzen als erstes einen Random Forest Algorithmus wie er in sec-class-rf beschrieben ist. Es bietet sich hier die Implementation im R Paket ranger an. Bevor wir aber einen Random Forest auf unsere Daten laufen lassen, Standardisieren wir unsere Daten nochmal. Überall wo wir einen numerischen Wert als Variableneintrag haben rechnen wir eine \(z\)-Transformation. Wir erhalten dann die standardisierten Daten zurück.

pig_norm_tbl <- pig_tbl %>% 
  mutate(across(where(is.character), as_factor),
         across(where(is.numeric), dlookr::transform, "zscore"))

pig_norm_tbl

# A tibble: 412 x 10
   age        sex    location  activity    crp        frailty   bloodpressure
   <transfrm> <fct>  <fct>     <transfrm>  <transfrm> <fct>     <transfrm>   
 1  0.2156014 male   northeast  1.23906607  1.6154076 robust    -2.019564072 
 2 -1.5521155 male   northwest -0.15495130 -0.9942285 robust     0.414746999 
 3  1.3204244 female northeast -1.18531196 -0.9104969 robust     0.005127347 
 4 -0.2263278 female north      0.03899895 -0.4848611 robust    -0.091425856 
 5  0.6575306 male   northwest  0.87540937  1.0502190 robust     0.897513016 
 6 -1.1101862 male   northwest  1.54211333  0.9664873 robust     0.385488452 
 7 -2.4359739 male   west       0.32386336 -0.7569889 pre-frail -1.331988229 
 8 -1.5521155 male   northwest  0.13597407 -0.7569889 robust     1.233986301 
 9 -0.4472924 female west      -0.87014282  1.2735034 robust    -0.029982909 
10 -0.6682570 male   northwest  0.46326510  0.6245832 robust    -0.082648292 
# ... with 402 more rows, and 3 more variables: weight <transfrm>,
#   creatinin <transfrm>, infected <transfrm>
…
