52 Modellieren in R – Bio Data Science
…
R Code [zeigen / verbergen]

emm_lst <- glm_lst %>% 
  map(~emmeans(.x, specs = ~ trt, type = "response")) 

emm_lst %>% 
  map(~contrast(.x, method = "pairwise", adjust = "bonferroni")) %>% 
  map(as_tibble) %>% 
  bind_rows(.id = "outcome")

# A tibble: 48 × 11
   outcome   contrast       odds.ratio     SE    df  null z.ratio p.value  ratio
   <chr>     <chr>               <dbl>  <dbl> <dbl> <dbl>   <dbl>   <dbl>  <dbl>
 1 ca        control / str…      0.829 0.978    Inf     1 -0.159    1     NA    
 2 ca        control / nod…      1.30  1.59     Inf     1  0.219    1     NA    
 3 ca        control / nod…      0.780 0.918    Inf     1 -0.211    1     NA    
 4 ca        strong / nodi…      1.57  1.90     Inf     1  0.376    1     NA    
 5 ca        strong / nodi…      0.941 1.10     Inf     1 -0.0523   1     NA    
 6 ca        nodium_3rd / …      0.598 0.719    Inf     1 -0.428    1     NA    
 7 drymatter control / str…     NA     0.0436   Inf     1 -0.425    1      0.981
 8 drymatter control / nod…     NA     0.0479   Inf     1  1.24     1      1.06 
 9 drymatter control / nod…     NA     0.0424   Inf     1 -0.930    1      0.960
10 drymatter strong / nodi…     NA     0.0486   Inf     1  1.67     0.571  1.08 
# ℹ 38 more rows
# ℹ 2 more variables: estimate <dbl>, t.ratio <dbl>

R Code [zeigen / verbergen]

emm_lst %>% 
  map(~cld(.x, Letters = letters, adjust = "bonferroni")) %>% 
  map(as_tibble) %>% 
  bind_rows(.id = "outcome") %>% 
  select(outcome, trt, .group)  %>% 
  print(n = 28)

# A tibble: 32 × 3
   outcome     trt        .group
   <chr>       <fct>      <chr> 
 1 ca          nodium_3rd " a"  
 2 ca          control    " a"  
 3 ca          strong     " a"  
 4 ca          nodium_5th " a"  
 5 drymatter   nodium_3rd " a"  
 6 drymatter   control    " a"  
 7 drymatter   strong     " a"  
 8 drymatter   nodium_5th " a"  
 9 flower      strong     " a " 
10 flower      nodium_3rd " ab" 
11 flower      nodium_5th "  b" 
12 flower      control    "  b" 
13 freshweight strong     " a"  
14 freshweight control    " a"  
15 freshweight nodium_3rd " a"  
16 freshweight nodium_5th " a"  
17 fruit       strong     " a"  
18 fruit       control    " a"  
19 fruit       nodium_3rd " a"  
20 fruit       nodium_5th " a"  
21 height      strong     " a"  
22 height      control    " a"  
23 height      nodium_3rd " a"  
24 height      nodium_5th " a"  
25 leaf        strong     " a " 
26 leaf        nodium_3rd " ab" 
27 leaf        nodium_5th " ab" 
28 leaf        control    "  b" 
# ℹ 4 more rows
…
