Bio Data Science - 40 Ausreißer
…
outlier_tbl

# A tibble: 672 × 6
     obs leverage rstudent color   fct_color   txt
   <int>    <dbl>    <dbl> <chr>   <ord>     <int>
 1     1  0.00527   2.19   outlier outlier       1
 2     2  0.00546  -0.522  normal  normal       NA
 3     3  0.00546  -0.522  normal  normal       NA
 4     4  0.00635   2.25   outlier outlier       4
 5     5  0.00327  -0.196  normal  normal       NA
 6     6  0.00327  -0.196  normal  normal       NA
 7     7  0.00386  -0.509  normal  normal       NA
 8     8  0.00774  -0.229  normal  normal       NA
 9     9  0.00443  -0.0295 normal  normal       NA
10    10  0.00327  -0.556  normal  normal       NA
# ℹ 662 more rows
…
