Skript Bio Data Science - 60 Zeitreihen (eng. time series)
…
Abbildung 60.3— Eine Zeitreihe, wie sie in der klassischen Analyse von Zeitreihen erwartet wird. Wir haben über einen längeren Zeitraum ein zyklisches Verhalten von Messwerten vorliegen. Nicht immer liegt so eine Form der Zeitreihe vor. Häufig ist der Zeitraum zu kurz gewählt.

Was ist nun ein Lag? Ein Lag ist einfach nur eine Verschiebung der Daten um einen Wert. Wir schauen uns also für Lag 1 die Werte ohne den ersten Wert an. Bei dem Lag 2 löschen wir die ersten beiden Werte. Und dann ist schon fast klar was wir bei dem Lag 3 machen, wir löschen die ersten drei Werte. Wenn wir dann dennoch die paarweise Korrelation berechnen, dann berechnen wir nicht die Korrelation mit sich selber, das wäre bei Lag 0, sondern eben die Korrelation mit sich selbst verschoben um den Lag. Deshalb nennt sich das dann auch Autokorrelation.

Dann berechnen wir einmal mit der Funktion lag aus dem R Paket {dplyr} die Lags 1, 2, und 3. Alle Lags packen wir dann mit den originalen Daten zusammen in einen Datensatz und haben somit auch gleich einen Vergleich.

erupt_tbl <- tibble(erupt, 
                    erupt_l1 = dplyr::lag(erupt, 1),
                    erupt_l2 = dplyr::lag(erupt, 2),
                    erupt_l3 = dplyr::lag(erupt, 3))
erupt_tbl

# A tibble: 107 × 4
   erupt erupt_l1 erupt_l2 erupt_l3
   <dbl>    <dbl>    <dbl>    <dbl>
 1    78       NA       NA       NA
 2    74       78       NA       NA
 3    68       74       78       NA
 4    76       68       74       78
 5    80       76       68       74
 6    84       80       76       68
 7    50       84       80       76
 8    93       50       84       80
 9    55       93       50       84
10    76       55       93       50
# ℹ 97 more rows
…
